<?xml version="1.0" encoding="UTF-8" standalone="no" ?>
<COLLADA xmlns="http://www.collada.org/2005/11/COLLADASchema" version="1.4.1">
    <asset>
        <contributor>
            <authoring_tool>SketchUp 17.2.2555</authoring_tool>
        </contributor>
        <created>2019-12-18T16:58:14Z</created>
        <modified>2019-12-18T16:58:14Z</modified>
        <unit meter="0.0254" name="inch" />
        <up_axis>Z_UP</up_axis>
    </asset>
    <library_cameras>
        <camera id="ID1" name="skp_camera_Last_Saved_SketchUp_View">
            <optics>
                <technique_common>
                    <perspective>
                        <yfov>35</yfov>
                        <aspect_ratio>0</aspect_ratio>
                        <znear>1</znear>
                        <zfar>1000</zfar>
                    </perspective>
                </technique_common>
            </optics>
        </camera>
    </library_cameras>
    <library_visual_scenes>
        <visual_scene id="ID2">
            <node name="SketchUp">
                <instance_geometry url="#ID3">
                    <bind_material>
                        <technique_common>
                            <instance_material symbol="Material2" target="#ID4">
                                <bind_vertex_input semantic="UVSET0" input_semantic="TEXCOORD" input_set="0" />
                            </instance_material>
                            <instance_material symbol="Material3" target="#ID14">
                                <bind_vertex_input semantic="UVSET0" input_semantic="TEXCOORD" input_set="0" />
                            </instance_material>
                        </technique_common>
                    </bind_material>
                </instance_geometry>
                <instance_geometry url="#ID18">
                    <bind_material>
                        <technique_common>
                            <instance_material symbol="Material2" target="#ID14">
                                <bind_vertex_input semantic="UVSET0" input_semantic="TEXCOORD" input_set="0" />
                            </instance_material>
                        </technique_common>
                    </bind_material>
                </instance_geometry>
                <instance_geometry url="#ID24">
                    <bind_material>
                        <technique_common>
                            <instance_material symbol="Material2" target="#ID14">
                                <bind_vertex_input semantic="UVSET0" input_semantic="TEXCOORD" input_set="0" />
                            </instance_material>
                        </technique_common>
                    </bind_material>
                </instance_geometry>
                <node name="skp_camera_Last_Saved_SketchUp_View">
                    <matrix>-0.681213 0.2270774 -0.6959776 -607.1125 -0.7320853 -0.2112978 0.6476144 846.0964 2.775558e-17 0.9506782 0.3101788 529.213 0 0 0 1</matrix>
                    <instance_camera url="#ID1" />
                </node>
            </node>
        </visual_scene>
    </library_visual_scenes>
    <library_geometries>
        <geometry id="ID3">
            <mesh>
                <source id="ID9">
                    <float_array id="ID15" count="270">153.3096 -47.6378 58.19919 143.7008 -47.6378 49.91508 183.0709 -47.6378 49.91508 -142.9134 -47.6378 49.91508 -182.2835 -47.6378 49.91508 -152.5222 -47.6378 58.19919 123.1758 -47.6378 65.00479 -122.3884 -47.6378 65.00479 92.74293 -47.6378 70.3153 -91.95553 -47.6378 70.3153 62.08512 -47.6378 74.11779 -61.29771 -47.6378 74.11779 31.27702 -47.6378 76.403 -30.48962 -47.6378 76.403 0.3937008 -47.6378 77.16535 -182.2835 -47.6378 49.91508 -182.2835 -47.6378 0 -142.9134 -47.6378 49.91508 143.7008 -47.6378 49.91508 -142.9134 49.6063 49.91508 -142.9134 -47.6378 49.91508 143.7008 49.6063 49.91508 143.7008 49.6063 49.91508 143.7008 -47.6378 49.91508 -142.9134 49.6063 49.91508 -142.9134 -47.6378 49.91508 143.7008 -47.6378 49.91508 183.0709 -47.6378 0 183.0709 -47.6378 49.91508 183.0709 -47.6378 49.91508 153.3096 49.6063 58.19919 153.3096 -47.6378 58.19919 183.0709 49.6063 49.91508 123.1758 49.6063 65.00479 123.1758 -47.6378 65.00479 92.74293 49.6063 70.3153 92.74293 -47.6378 70.3153 62.08512 49.6063 74.11779 62.08512 -47.6378 74.11779 31.27702 49.6063 76.403 31.27702 -47.6378 76.403 0.3937008 49.6063 77.16535 0.3937008 -47.6378 77.16535 0.3937008 -47.6378 77.16535 -30.48962 49.6063 76.403 -30.48962 -47.6378 76.403 0.3937008 49.6063 77.16535 -61.29771 49.6063 74.11779 -61.29771 -47.6378 74.11779 -91.95553 49.6063 70.3153 -91.95553 -47.6378 70.3153 -122.3884 49.6063 65.00479 -122.3884 -47.6378 65.00479 -152.5222 49.6063 58.19919 -152.5222 -47.6378 58.19919 -182.2835 49.6063 49.91508 -182.2835 -47.6378 49.91508 -182.2835 49.6063 49.91508 -182.2835 -47.6378 0 -182.2835 -47.6378 49.91508 -182.2835 49.6063 0 -182.2835 49.6063 0 -142.9134 -47.6378 49.91508 -182.2835 -47.6378 0 -142.9134 49.6063 49.91508 -152.5222 49.6063 58.19919 -142.9134 49.6063 49.91508 -182.2835 49.6063 49.91508 143.7008 49.6063 49.91508 183.0709 49.6063 49.91508 153.3096 49.6063 58.19919 -122.3884 49.6063 65.00479 123.1758 49.6063 65.00479 -91.95553 49.6063 70.3153 92.74293 49.6063 70.3153 -61.29771 49.6063 74.11779 62.08512 49.6063 74.11779 -30.48962 49.6063 76.403 31.27702 49.6063 76.403 0.3937008 49.6063 77.16535 143.7008 -47.6378 49.91508 183.0709 49.6063 0 183.0709 -47.6378 0 143.7008 49.6063 49.91508 183.0709 49.6063 0 183.0709 -47.6378 49.91508 183.0709 -47.6378 0 183.0709 49.6063 49.91508 -182.2835 49.6063 0 183.0709 49.6063 0</float_array>
                    <technique_common>
                        <accessor count="90" source="#ID15" stride="3">
                            <param name="X" type="float" />
                            <param name="Y" type="float" />
                            <param name="Z" type="float" />
                        </accessor>
                    </technique_common>
                </source>
                <source id="ID10">
                    <float_array id="ID16" count="270">1.525525e-32 -1 1.007191e-15 1.525525e-32 -1 1.007191e-15 1.525525e-32 -1 1.007191e-15 1.525525e-32 -1 1.007191e-15 1.525525e-32 -1 1.007191e-15 1.525525e-32 -1 1.007191e-15 1.525525e-32 -1 1.007191e-15 1.525525e-32 -1 1.007191e-15 1.525525e-32 -1 1.007191e-15 1.525525e-32 -1 1.007191e-15 1.525525e-32 -1 1.007191e-15 1.525525e-32 -1 1.007191e-15 1.525525e-32 -1 1.007191e-15 1.525525e-32 -1 1.007191e-15 1.525525e-32 -1 1.007191e-15 1.443823e-15 -1 3.212887e-31 1.443823e-15 -1 3.212887e-31 1.443823e-15 -1 3.212887e-31 -0 -0 1 -0 -0 1 -0 -0 1 -0 -0 1 0 0 -1 0 0 -1 0 0 -1 0 0 -1 -1.443823e-15 -1 1.606444e-31 -1.443823e-15 -1 1.606444e-31 -1.443823e-15 -1 1.606444e-31 0.2681572 -5.968983e-19 0.9633752 0.2443019 -2.985401e-19 0.9696992 0.2443019 -2.985401e-19 0.9696992 0.2681572 -5.968983e-19 0.9633752 0.1961595 0 0.980572 0.1961595 0 0.980572 0.1475393 0 0.9890562 0.1475393 0 0.9890562 0.09855962 0 0.9951311 0.09855962 0 0.9951311 0.0493399 0 0.998782 0.0493399 0 0.998782 0.02467747 -0 0.9996955 0.02467747 -0 0.9996955 -0.02467747 -0 0.9996955 -0.0493399 0 0.998782 -0.0493399 0 0.998782 -0.02467747 -0 0.9996955 -0.09855962 0 0.9951311 -0.09855962 0 0.9951311 -0.1475393 0 0.9890562 -0.1475393 0 0.9890562 -0.1961595 0 0.980572 -0.1961595 0 0.980572 -0.2443019 1.31387e-18 0.9696992 -0.2443019 1.31387e-18 0.9696992 -0.2681572 2.62694e-18 0.9633752 -0.2681572 2.62694e-18 0.9633752 -1 0 0 -1 0 0 -1 0 0 -1 0 0 0.7851624 -5.051066e-18 -0.6192899 0.7851624 -5.051066e-18 -0.6192899 0.7851624 -5.051066e-18 -0.6192899 0.7851624 -5.051066e-18 -0.6192899 -0 1 -0 -0 1 -0 -0 1 -0 -0 1 -0 -0 1 -0 -0 1 -0 -0 1 -0 -0 1 -0 -0 1 -0 -0 1 -0 -0 1 -0 -0 1 -0 -0 1 -0 -0 1 -0 -0 1 -0 -0.7851624 -5.051066e-18 -0.6192899 -0.7851624 -5.051066e-18 -0.6192899 -0.7851624 -5.051066e-18 -0.6192899 -0.7851624 -5.051066e-18 -0.6192899 1 -0 -0 1 -0 -0 1 -0 -0 1 -0 -0 -0 1 -0 -0 1 -0</float_array>
                    <technique_common>
                        <accessor count="90" source="#ID16" stride="3">
                            <param name="X" type="float" />
                            <param name="Y" type="float" />
                            <param name="Z" type="float" />
                        </accessor>
                    </technique_common>
                </source>
                <source id="ID12">
                    <float_array id="ID17" count="210">2.55516 1.939973 2.395013 1.663836 3.051181 1.663836 -2.38189 1.663836 -3.038058 1.663836 -2.542036 1.939973 2.05293 2.166826 -2.039807 2.166826 1.545716 2.343843 -1.532592 2.343843 1.034752 2.470593 -1.021629 2.470593 0.5212837 2.546767 -0.5081604 2.546767 0.00656168 2.572178 -3.038058 1.663836 -3.038058 -5.101829e-31 -2.38189 1.663836 2.395013 1.653543 2.395013 -1.587927 -2.38189 1.653543 -2.38189 -1.587927 2.395013 1.663836 3.051181 -2.550914e-31 3.051181 1.663836 2.664535e-14 8.881784e-16 0.5149311 -3.24147 0.5149311 -1.110223e-15 2.664535e-14 -3.24147 0.5149311 -1.332268e-15 1.029862 -3.24147 1.029862 -1.332268e-15 0.5149311 -3.24147 1.029862 -8.881784e-16 1.544793 -3.24147 1.544793 -8.881784e-16 1.029862 -3.24147 1.544793 -2.442491e-15 2.059724 -3.24147 2.059724 -2.442491e-15 1.544793 -3.24147 2.059724 -2.220446e-15 2.574656 -3.24147 2.574656 -2.220446e-15 2.059724 -3.24147 2.574656 -4.440892e-16 3.089587 -3.24147 3.089587 -4.440892e-16 2.574656 -3.24147 -1.464107e-15 -2.220446e-16 0.5149311 -3.24147 0.5149311 -2.220446e-16 -1.464107e-15 -3.24147 0.5149311 -8.881784e-16 1.029862 -3.24147 1.029862 -8.881784e-16 0.5149311 -3.24147 1.029862 3.552714e-15 1.544793 -3.24147 1.544793 3.552714e-15 1.544793 -4.440892e-16 2.059724 -3.24147 2.059724 -4.440892e-16 1.544793 -3.24147 2.059724 -4.440892e-16 2.574656 -3.24147 2.574656 -4.440892e-16 2.059724 -3.24147 2.574656 -8.881784e-16 3.089587 -3.24147 3.089587 1.110223e-15 2.574656 -3.24147 -0.8267717 1.663836 0.7939633 0 0.7939633 1.663836 -0.8267717 0 0.8267717 -3.762877 -0.7939633 -1.643779 -0.7939633 -3.762877 0.8267717 -1.643779 2.542036 1.939973 2.38189 1.663836 3.038058 1.663836 -2.395013 1.663836 -3.051181 1.663836 -2.55516 1.939973 2.039807 2.166826 -2.05293 2.166826 1.532592 2.343843 -1.545716 2.343843 1.021629 2.470593 -1.034752 2.470593 0.5081604 2.546767 -0.5212837 2.546767 -0.00656168 2.572178 0.7939633 -1.660033 -0.8267717 -3.779131 0.7939633 -3.779131 -0.8267717 -1.660033 0.8267717 0 -0.7939633 1.663836 -0.7939633 0 0.8267717 1.663836 3.038058 0 -3.051181 0</float_array>
                    <technique_common>
                        <accessor count="105" source="#ID17" stride="2">
                            <param name="S" type="float" />
                            <param name="T" type="float" />
                        </accessor>
                    </technique_common>
                </source>
                <vertices id="ID11">
                    <input semantic="POSITION" source="#ID9" />
                    <input semantic="NORMAL" source="#ID10" />
                </vertices>
                <triangles count="64" material="Material2">
                    <input offset="0" semantic="VERTEX" source="#ID11" />
                    <input offset="1" semantic="TEXCOORD" source="#ID12" />
                    <p>0 0 1 1 2 2 1 1 0 0 3 3 3 3 0 0 4 4 4 4 0 0 5 5 5 5 0 0 6 6 5 5 6 6 7 7 7 7 6 6 8 8 7 7 8 8 9 9 9 9 8 8 10 10 9 9 10 10 11 11 11 11 10 10 12 12 11 11 12 12 13 13 13 13 12 12 14 14 15 15 16 16 17 17 22 18 23 19 24 20 25 21 24 20 23 19 26 22 27 23 28 24 29 25 30 26 31 27 30 26 29 25 32 28 31 29 33 30 34 31 33 30 31 29 30 32 34 33 35 34 36 35 35 34 34 33 33 36 36 37 37 38 38 39 37 38 36 37 35 40 38 41 39 42 40 43 39 42 38 41 37 44 40 45 41 46 42 47 41 46 40 45 39 48 43 49 44 50 45 51 44 50 43 49 46 52 45 53 47 54 48 55 47 54 45 53 44 56 48 57 49 58 50 59 49 58 48 57 47 54 50 60 51 61 52 62 51 61 50 60 49 63 52 64 53 65 54 66 53 65 52 64 51 67 54 68 55 69 56 70 55 69 54 68 53 71 57 72 58 73 59 74 58 73 57 72 60 75 61 76 62 77 63 78 62 77 61 76 64 79 65 80 66 81 67 82 66 81 65 80 68 83 68 83 65 80 69 84 69 84 65 80 70 85 70 85 65 80 71 86 70 85 71 86 72 87 72 87 71 86 73 88 72 87 73 88 74 89 74 89 73 88 75 90 74 89 75 90 76 91 76 91 75 90 77 92 76 91 77 92 78 93 78 93 77 92 79 94 80 95 81 96 82 97 81 96 80 95 83 98 84 99 85 100 86 101 85 100 84 99 87 102 66 81 88 103 67 82 69 84 89 104 68 83</p>
                </triangles>
                <triangles count="2" material="Material3">
                    <input offset="0" semantic="VERTEX" source="#ID11" />
                    <p>18 19 20 19 18 21</p>
                </triangles>
            </mesh>
        </geometry>
        <geometry id="ID18">
            <mesh>
                <source id="ID19">
                    <float_array id="ID22" count="12">183.0709 -47.6378 49.91508 143.7008 49.6063 49.91508 143.7008 -47.6378 49.91508 183.0709 49.6063 49.91508</float_array>
                    <technique_common>
                        <accessor count="4" source="#ID22" stride="3">
                            <param name="X" type="float" />
                            <param name="Y" type="float" />
                            <param name="Z" type="float" />
                        </accessor>
                    </technique_common>
                </source>
                <source id="ID20">
                    <float_array id="ID23" count="12">-0 -0 1 -0 -0 1 -0 -0 1 -0 -0 1</float_array>
                    <technique_common>
                        <accessor count="4" source="#ID23" stride="3">
                            <param name="X" type="float" />
                            <param name="Y" type="float" />
                            <param name="Z" type="float" />
                        </accessor>
                    </technique_common>
                </source>
                <vertices id="ID21">
                    <input semantic="POSITION" source="#ID19" />
                    <input semantic="NORMAL" source="#ID20" />
                </vertices>
                <triangles count="2" material="Material2">
                    <input offset="0" semantic="VERTEX" source="#ID21" />
                    <p>0 1 2 1 0 3</p>
                </triangles>
            </mesh>
        </geometry>
        <geometry id="ID24">
            <mesh>
                <source id="ID25">
                    <float_array id="ID28" count="12">-142.9134 -47.6378 49.91508 -182.2835 49.6063 49.91508 -182.2835 -47.6378 49.91508 -142.9134 49.6063 49.91508</float_array>
                    <technique_common>
                        <accessor count="4" source="#ID28" stride="3">
                            <param name="X" type="float" />
                            <param name="Y" type="float" />
                            <param name="Z" type="float" />
                        </accessor>
                    </technique_common>
                </source>
                <source id="ID26">
                    <float_array id="ID29" count="12">-0 -0 1 -0 -0 1 -0 -0 1 -0 -0 1</float_array>
                    <technique_common>
                        <accessor count="4" source="#ID29" stride="3">
                            <param name="X" type="float" />
                            <param name="Y" type="float" />
                            <param name="Z" type="float" />
                        </accessor>
                    </technique_common>
                </source>
                <vertices id="ID27">
                    <input semantic="POSITION" source="#ID25" />
                    <input semantic="NORMAL" source="#ID26" />
                </vertices>
                <triangles count="2" material="Material2">
                    <input offset="0" semantic="VERTEX" source="#ID27" />
                    <p>0 1 2 1 0 3</p>
                </triangles>
            </mesh>
        </geometry>
    </library_geometries>
    <library_materials>
        <material id="ID4" name="Wood_Lumber_ButtJoined">
            <instance_effect url="#ID5" />
        </material>
        <material id="ID14" name="material">
            <instance_effect url="#ID13" />
        </material>
    </library_materials>
    <library_effects>
        <effect id="ID5">
            <profile_COMMON>
                <newparam sid="ID7">
                    <surface type="2D">
                        <init_from>ID6</init_from>
                    </surface>
                </newparam>
                <newparam sid="ID8">
                    <sampler2D>
                        <source>ID7</source>
                    </sampler2D>
                </newparam>
                <technique sid="COMMON">
                    <lambert>
                        <diffuse>
                            <texture texture="ID8" texcoord="UVSET0" />
                        </diffuse>
                    </lambert>
                </technique>
            </profile_COMMON>
        </effect>
        <effect id="ID13">
            <profile_COMMON>
                <technique sid="COMMON">
                    <lambert>
                        <diffuse>
                            <color>1 1 1 1</color>
                        </diffuse>
                    </lambert>
                </technique>
            </profile_COMMON>
        </effect>
    </library_effects>
    <library_images>
        <image id="ID6">
            <init_from>bridge/Wood_Lumber_ButtJoined.jpg</init_from>
        </image>
    </library_images>
    <scene>
        <instance_visual_scene url="#ID2" />
    </scene>
</COLLADA>
