<?xml version="1.0" encoding="utf-8"?>
<COLLADA xmlns="http://www.collada.org/2005/11/COLLADASchema" version="1.4.1" xmlns:xsi="http://www.w3.org/2001/XMLSchema-instance">
  <asset>
    <contributor>
      <author>Blender User</author>
      <authoring_tool>Blender 2.80.59 commit date:2019-04-26, commit time:06:00, hash:513b71c89ad0</authoring_tool>
    </contributor>
    <created>2020-01-14T18:36:43</created>
    <modified>2020-01-14T18:36:43</modified>
    <unit name="meter" meter="1"/>
    <up_axis>Z_UP</up_axis>
  </asset>
  <library_effects>
    <effect id="Material_001-effect">
      <profile_COMMON>
        <technique sid="common">
          <lambert>
            <diffuse>
              <color sid="diffuse">0.2597988 0.0992199 0.04393351 1</color>
            </diffuse>
            <reflectivity>
              <float sid="specular">0.5</float>
            </reflectivity>
          </lambert>
        </technique>
      </profile_COMMON>
    </effect>
    <effect id="Material_002-effect">
      <profile_COMMON>
        <technique sid="common">
          <lambert>
            <diffuse>
              <color sid="diffuse">0.8829235 0.3213776 0.1339998 1</color>
            </diffuse>
            <reflectivity>
              <float sid="specular">0.5</float>
            </reflectivity>
          </lambert>
        </technique>
      </profile_COMMON>
    </effect>
  </library_effects>
  <library_images/>
  <library_materials>
    <material id="Material_001-material" name="Material.001">
      <instance_effect url="#Material_001-effect"/>
    </material>
    <material id="Material_002-material" name="Material.002">
      <instance_effect url="#Material_002-effect"/>
    </material>
  </library_materials>
  <library_geometries>
    <geometry id="Cylinder_003-mesh" name="Cylinder.003">
      <mesh>
        <source id="Cylinder_003-mesh-positions">
          <float_array id="Cylinder_003-mesh-positions-array" count="288">0 1 -1 0 1 1 0.8660255 0.5 -1 0.8660255 0.5 1 0.8660254 -0.5000001 -1 0.8660254 -0.5000001 1 0 -1 -1 0 -1 1 -0.8660255 -0.4999999 -1 -0.8660255 -0.4999999 1 -0.8660255 0.4999999 -1 -0.8660255 0.4999999 1 0.7036333 0.4062429 1 0 0.8124858 1 0.7036333 -0.406243 1 0 -0.8124858 1 -0.7036334 -0.4062428 1 -0.7036334 0.4062428 1 0 0.8115924 -1 0.7028596 0.4057962 -1 0.7028596 -0.4057963 -1 0 -0.8115924 -1 -0.7028597 -0.4057961 -1 -0.7028597 0.4057961 -1 -5.283728 1 0 5.283728 0.9999998 0 -5.283728 0.5000002 -0.1639042 5.283728 0.4999997 -0.1639043 -5.283728 -0.4999999 -0.1639041 5.283728 -0.5000004 -0.1639043 -5.283728 -0.9999998 0 5.283728 -1 0 -5.283728 -0.4999997 0.1639043 5.283728 -0.5000001 0.1639042 -5.283728 0.5000002 0.1639043 5.283728 0.4999997 0.1639042 5.283728 0.4062426 -0.1331699 5.283728 0.8124856 0 5.283728 -0.4062433 -0.1331699 5.283728 -0.8124861 0 5.283728 -0.406243 0.1331698 5.283728 0.4062426 0.1331698 -5.283728 0.8115926 0 -5.283728 0.4057964 -0.1330234 -5.283728 -0.4057961 -0.1330234 -5.283728 -0.8115922 0 -5.283728 -0.4057959 0.1330235 -5.283728 0.4057964 0.1330235 -3.73616 1 -0.7071067 3.73616 1 0.7071067 -3.123787 0.5 -0.8230044 4.348532 0.4999999 0.5912089 -3.123787 -0.5 -0.8230044 4.348532 -0.5000001 0.5912089 -3.73616 -1 -0.7071067 3.73616 -1 0.7071067 -4.348532 -0.4999998 -0.5912089 3.123787 -0.5 0.8230044 -4.348532 0.5 -0.5912089 3.123787 0.4999999 0.8230044 4.233703 0.4062428 0.6129413 3.73616 0.8124858 0.7071067 4.233703 -0.4062431 0.6129414 3.73616 -0.8124859 0.7071067 3.238616 -0.4062429 0.801272 3.238616 0.4062427 0.801272 -3.73616 0.8115925 -0.7071067 -3.239163 0.4057962 -0.8011685 -3.239163 -0.4057962 -0.8011685 -3.73616 -0.8115924 -0.7071067 -4.233156 -0.4057961 -0.6130449 -4.233156 0.4057962 -0.6130449 3.736159 1 -0.7071068 -3.736159 1 0.7071068 4.348532 0.5000001 -0.591209 -3.123787 0.5 0.8230046 4.348532 -0.5 -0.591209 -3.123787 -0.5000001 0.8230046 3.736159 -1 -0.7071068 -3.736159 -1 0.7071068 3.123787 -0.4999999 -0.8230046 -4.348532 -0.5 0.591209 3.123787 0.5 -0.8230046 -4.348532 0.4999998 0.591209 -3.238615 0.4062429 0.8012721 -3.736159 0.8124858 0.7071068 -3.238615 -0.406243 0.801272 -3.736159 -0.8124859 0.7071068 -4.233703 -0.4062429 0.6129415 -4.233703 0.4062427 0.6129415 3.736159 0.8115925 -0.7071068 4.233156 0.4057962 -0.613045 4.233156 -0.4057962 -0.613045 3.736159 -0.8115924 -0.7071068 3.239162 -0.4057961 -0.8011686 3.239162 0.4057961 -0.8011686</float_array>
          <technique_common>
            <accessor source="#Cylinder_003-mesh-positions-array" count="96" stride="3">
              <param name="X" type="float"/>
              <param name="Y" type="float"/>
              <param name="Z" type="float"/>
            </accessor>
          </technique_common>
        </source>
        <source id="Cylinder_003-mesh-normals">
          <float_array id="Cylinder_003-mesh-normals-array" count="393">0.5 0.8660255 0 1 0 0 0.5 -0.8660255 0 -0.5000001 -0.8660253 0 -4.51752e-7 0 1 -1 0 0 -0.5000001 0.8660255 0 3.65301e-7 0 -1 0 0 1 3.67042e-7 0 1 7.34084e-7 0 1 -9.03502e-7 0 1 -3.67042e-7 0 1 7.34083e-7 0 1 -1.3932e-7 0 -1 0 0 -1 3.65301e-7 0 -1 3.65301e-7 0 -1 0 0.3114989 -0.9502466 0 0 -1 0 -0.311499 -0.9502465 0 -0.3114988 0.9502466 1 -1.12096e-6 0 0 0 1 0 0.3114989 0.9502466 1 2.20353e-6 0 1 1.01255e-6 0 -1 2.84776e-6 0 -1 -2.73934e-6 0 0.1692298 0.4145265 -0.894164 0.1859591 0 -0.9825575 0.1692297 -0.4145265 -0.894164 -0.1692298 -0.4145264 0.8941641 0.1859591 0 0.9825576 -0.1859591 0 0.9825575 -0.1692297 0.4145263 0.894164 -0.1859587 0 -0.9825576 0.185959 2.89748e-7 0.9825575 0.1859594 0 0.9825574 0.1859592 0 0.9825575 0.1859603 1.77392e-7 0.9825574 0.1859588 0 0.9825576 0.1859585 6.27729e-7 0.9825577 -0.1859592 0 -0.9825575 -0.1859591 0 -0.9825576 -0.185959 0 -0.9825576 -0.1859591 -6.2544e-7 -0.9825575 -0.1859592 0 -0.9825575 -0.1859588 0 -0.9825576 0.1692298 0.4145265 0.8941639 0.1859591 0 0.9825575 0.1692298 -0.4145267 0.8941639 -0.1692298 -0.4145265 -0.8941639 -0.185959 0 0.9825576 -0.1859591 0 -0.9825575 -0.1692298 0.4145265 -0.894164 0.1859588 0 -0.9825576 -0.185959 0 0.9825575 -0.1859588 0 0.9825576 -0.185959 6.27729e-7 0.9825576 -0.185958 0 0.9825578 -0.1859592 0 0.9825575 -0.1859591 0 0.9825576 0.1859591 0 -0.9825576 0.1859593 0 -0.9825575 0.1859593 0 -0.9825575 0.1859588 1.25088e-6 -0.9825576 0.1859592 0 -0.9825575 1 -1.19209e-7 0 0.5 -0.8660255 0 -0.5000001 -0.8660254 0 3.67042e-7 0 1 -2.0852e-7 0 1 9.03503e-7 0 1 2.08979e-7 0 -1 3.65301e-7 0 -1 0 0.3114988 -0.9502466 0 0 -1 0 -0.3114989 -0.9502465 0 -0.3114987 0.9502466 0 0 1 0 0.3114989 0.9502466 1 -2.20353e-6 0 1 4.77386e-6 0 1 1.12096e-6 0 1 -1.01255e-6 0 -1 -1.10419e-6 0 -1 1.10419e-6 0 -1 6.59965e-6 0 -1 -6.70806e-6 0 0.1692297 0.4145264 -0.8941641 0.1692297 -0.4145264 -0.894164 -0.1692297 -0.4145264 0.894164 0.1859594 -6.2773e-7 0.9825574 -0.1692297 0.4145264 0.894164 -0.1859583 0 -0.9825577 0.1859591 0 0.9825576 0.1859592 -2.89748e-7 0.9825575 0.1859592 0 0.9825575 0.1859593 0 0.9825575 0.1859586 0 0.9825576 0.1859598 0 0.9825575 0.1859595 0 0.9825575 -0.1859592 -1.45193e-7 -0.9825575 -0.1859591 0 -0.9825575 -0.1859591 1.45193e-7 -0.9825575 -0.1859587 0 -0.9825577 -0.1859589 6.2544e-7 -0.9825576 -0.1859591 0 -0.9825575 -0.1859593 0 -0.9825575 0.1692298 0.4145265 0.8941639 0.1692298 -0.4145266 0.894164 -0.1692298 -0.4145265 -0.894164 -0.1859599 0 0.9825574 -0.1692298 0.4145265 -0.8941639 0.1859579 0 -0.9825578 -0.1859591 -1.44874e-7 0.9825575 -0.1859592 1.44874e-7 0.9825575 -0.1859591 0 0.9825575 -0.1859591 -6.27729e-7 0.9825576 -0.1859588 0 0.9825576 -0.1859596 -1.42639e-7 0.9825575 -0.1859579 0 0.9825577 0.185959 -1.45193e-7 -0.9825576 0.1859592 0 -0.9825575 0.1859592 1.45193e-7 -0.9825575 0.1859587 0 -0.9825577 0.1859588 -1.25088e-6 -0.9825576 0.1859589 0 -0.9825576 0.1859592 0 -0.9825575 0.1859591 0 -0.9825575</float_array>
          <technique_common>
            <accessor source="#Cylinder_003-mesh-normals-array" count="131" stride="3">
              <param name="X" type="float"/>
              <param name="Y" type="float"/>
              <param name="Z" type="float"/>
            </accessor>
          </technique_common>
        </source>
        <source id="Cylinder_003-mesh-map-0">
          <float_array id="Cylinder_003-mesh-map-0-array" count="1056">1 1 0.8333333 0.5 1 0.5 0.8333333 1 0.6666666 0.5 0.8333333 0.5 0.6666666 1 0.5 0.5 0.6666666 0.5 0.5 1 0.3333333 0.5 0.5 0.5 0.5 1 0.6666666 1 0.5 1 0.3333333 1 0.1666666 0.5 0.3333333 0.5 0.1666666 1 0 0.5 0.1666666 0.5 0.6666666 0.5 0.8333333 0.5 0.8333333 0.5 0.04215389 0.13 0.25 0.00999999 0.4578461 0.1299999 0.1666666 1 0 1 0 1 0.5 1 0.3333333 1 0.3333333 1 0.6666666 1 0.8333333 1 0.6666666 1 0.3333333 1 0.1666666 1 0.1666666 1 1 1 0.8333333 1 0.8333333 1 0.9578461 0.37 0.75 0.00999999 0.5421539 0.37 0.1666666 0.5 0.3333333 0.5 0.3333333 0.5 0.8333333 0.5 1 0.5 1 0.5 0.5 0.5 0.6666666 0.5 0.6666666 0.5 0.1666666 0.5 0 0.5 0.1666666 0.5 0.3333333 0.5 0.5 0.5 0.5 0.5 1 1 0.8333333 0.5 1 0.5 0.8333333 1 0.6666666 0.5 0.8333333 0.5 0.6666666 1 0.5 0.5 0.6666666 0.5 0.5 1 0.3333333 0.5 0.5 0.5 0.6666666 1 0.5 1 0.5 1 0.3333333 1 0.1666666 0.5 0.3333333 0.5 0.1666666 1 0 0.5 0.1666666 0.5 0.6666666 0.5 0.8333333 0.5 0.8333333 0.5 0.04215389 0.13 0.25 0.00999999 0.4578461 0.1299999 0.1666666 1 0 1 0 1 0.3333333 1 0.5 1 0.3333333 1 0.8333333 1 0.6666666 1 0.6666666 1 0.3333333 1 0.1666666 1 0.1666666 1 0.8333333 1 1 1 0.8333333 1 0.5421539 0.13 0.5421539 0.37 0.9578461 0.37 0.1666666 0.5 0.3333333 0.5 0.3333333 0.5 0.8333333 0.5 1 0.5 1 0.5 0.6666666 0.5 0.5 0.5 0.6666666 0.5 0.1666666 0.5 0 0.5 0.1666666 0.5 0.3333333 0.5 0.5 0.5 0.5 0.5 1 1 0.8333333 0.5 1 0.5 0.8333333 1 0.6666666 0.5 0.8333333 0.5 0.6666666 0.5 0.5 1 0.5 0.5 0.5 0.5 0.3333333 1 0.3333333 0.5 0.6666666 1 0.5 1 0.5 1 0.3333333 1 0.1666666 0.5 0.3333333 0.5 0.1666666 1 0 0.5 0.1666666 0.5 0.6666666 0.5 0.8333333 0.5 0.8333333 0.5 0.04215389 0.13 0.25 0.00999999 0.4578461 0.1299999 0.1666666 1 0 1 0 1 0.3333333 1 0.5 1 0.3333333 1 0.6666666 1 0.8333333 1 0.6666666 1 0.3333333 1 0.1666666 1 0.1666666 1 0.8333333 1 1 1 0.8333333 1 0.5421539 0.13 0.5421539 0.37 0.9578461 0.37 0.1666666 0.5 0.3333333 0.5 0.3333333 0.5 0.8333333 0.5 1 0.5 1 0.5 0.6666666 0.5 0.5 0.5 0.6666666 0.5 0.1666666 0.5 0 0.5 0.1666666 0.5 0.3333333 0.5 0.5 0.5 0.5 0.5 1 0.5 0.8333333 1 0.8333333 0.5 0.8333333 1 0.6666666 0.5 0.8333333 0.5 0.6666666 1 0.5 0.5 0.6666666 0.5 0.5 1 0.3333333 0.5 0.5 0.5 0.6666666 1 0.5 1 0.5 1 0.3333333 1 0.1666666 0.5 0.3333333 0.5 0.1666666 0.5 0 1 0 0.5 0.6666666 0.5 0.8333333 0.5 0.8333333 0.5 0.04215389 0.13 0.25 0.00999999 0.4578461 0.1299999 0.1666666 1 0 1 0 1 0.3333333 1 0.5 1 0.3333333 1 0.8333333 1 0.6666666 1 0.6666666 1 0.3333333 1 0.1666666 1 0.1666666 1 0.8333333 1 1 1 0.8333333 1 0.5421539 0.37 0.9578461 0.1299999 0.5421539 0.13 0.1666666 0.5 0.3333333 0.5 0.3333333 0.5 0.8333333 0.5 1 0.5 1 0.5 0.6666666 0.5 0.5 0.5 0.6666666 0.5 0.1666666 0.5 0 0.5 0.1666666 0.5 0.3333333 0.5 0.5 0.5 0.5 0.5 1 1 0.8333333 1 0.8333333 0.5 0.8333333 1 0.6666666 1 0.6666666 0.5 0.6666666 1 0.5 1 0.5 0.5 0.5 1 0.3333333 1 0.3333333 0.5 0.5 1 0.6666666 1 0.6666666 1 0.3333333 1 0.1666666 1 0.1666666 0.5 0.1666666 1 0 1 0 0.5 0.6666666 0.5 0.6666666 0.5 0.8333333 0.5 0.4578461 0.1299999 0.4578461 0.37 0.04215389 0.13 0.4578461 0.37 0.25 0.49 0.04215389 0.13 0.25 0.49 0.04215389 0.37 0.04215389 0.13 0.1666666 1 0.1666666 1 0 1 0.5 1 0.5 1 0.3333333 1 0.6666666 1 0.8333333 1 0.8333333 1 0.3333333 1 0.3333333 1 0.1666666 1 1 1 1 1 0.8333333 1 0.5421539 0.37 0.75 0.49 0.9578461 0.37 0.9578461 0.37 0.9578461 0.1299999 0.75 0.00999999 0.75 0.00999999 0.5421539 0.13 0.5421539 0.37 0.1666666 0.5 0.1666666 0.5 0.3333333 0.5 0.8333333 0.5 0.8333333 0.5 1 0.5 0.5 0.5 0.5 0.5 0.6666666 0.5 0.1666666 0.5 0 0.5 0 0.5 0.3333333 0.5 0.3333333 0.5 0.5 0.5 1 1 0.8333333 1 0.8333333 0.5 0.8333333 1 0.6666666 1 0.6666666 0.5 0.6666666 1 0.5 1 0.5 0.5 0.5 1 0.3333333 1 0.3333333 0.5 0.6666666 1 0.6666666 1 0.5 1 0.3333333 1 0.1666666 1 0.1666666 0.5 0.1666666 1 0 1 0 0.5 0.6666666 0.5 0.6666666 0.5 0.8333333 0.5 0.4578461 0.1299999 0.4578461 0.37 0.04215389 0.13 0.4578461 0.37 0.25 0.49 0.04215389 0.37 0.04215389 0.13 0.4578461 0.37 0.04215389 0.37 0.1666666 1 0.1666666 1 0 1 0.3333333 1 0.5 1 0.5 1 0.8333333 1 0.8333333 1 0.6666666 1 0.3333333 1 0.3333333 1 0.1666666 1 0.8333333 1 1 1 1 1 0.5421539 0.37 0.75 0.49 0.9578461 0.37 0.9578461 0.37 0.9578461 0.1299999 0.5421539 0.13 0.9578461 0.1299999 0.75 0.00999999 0.5421539 0.13 0.1666666 0.5 0.1666666 0.5 0.3333333 0.5 0.8333333 0.5 0.8333333 0.5 1 0.5 0.6666666 0.5 0.5 0.5 0.5 0.5 0.1666666 0.5 0 0.5 0 0.5 0.3333333 0.5 0.3333333 0.5 0.5 0.5 1 1 0.8333333 1 0.8333333 0.5 0.8333333 1 0.6666666 1 0.6666666 0.5 0.6666666 0.5 0.6666666 1 0.5 1 0.5 0.5 0.5 1 0.3333333 1 0.6666666 1 0.6666666 1 0.5 1 0.3333333 1 0.1666666 1 0.1666666 0.5 0.1666666 1 0 1 0 0.5 0.6666666 0.5 0.6666666 0.5 0.8333333 0.5 0.4578461 0.1299999 0.4578461 0.37 0.04215389 0.13 0.4578461 0.37 0.25 0.49 0.04215389 0.37 0.04215389 0.13 0.4578461 0.37 0.04215389 0.37 0.1666666 1 0.1666666 1 0 1 0.3333333 1 0.5 1 0.5 1 0.6666666 1 0.8333333 1 0.8333333 1 0.3333333 1 0.3333333 1 0.1666666 1 0.8333333 1 1 1 1 1 0.5421539 0.37 0.75 0.49 0.9578461 0.37 0.9578461 0.37 0.9578461 0.1299999 0.5421539 0.13 0.9578461 0.1299999 0.75 0.00999999 0.5421539 0.13 0.1666666 0.5 0.1666666 0.5 0.3333333 0.5 0.8333333 0.5 0.8333333 0.5 1 0.5 0.6666666 0.5 0.5 0.5 0.5 0.5 0.1666666 0.5 0 0.5 0 0.5 0.3333333 0.5 0.3333333 0.5 0.5 0.5 1 0.5 1 1 0.8333333 1 0.8333333 1 0.6666666 1 0.6666666 0.5 0.6666666 1 0.5 1 0.5 0.5 0.5 1 0.3333333 1 0.3333333 0.5 0.6666666 1 0.6666666 1 0.5 1 0.3333333 1 0.1666666 1 0.1666666 0.5 0.1666666 0.5 0.1666666 1 0 1 0.6666666 0.5 0.6666666 0.5 0.8333333 0.5 0.4578461 0.1299999 0.4578461 0.37 0.04215389 0.13 0.4578461 0.37 0.25 0.49 0.04215389 0.37 0.04215389 0.13 0.4578461 0.37 0.04215389 0.37 0.1666666 1 0.1666666 1 0 1 0.3333333 1 0.5 1 0.5 1 0.8333333 1 0.8333333 1 0.6666666 1 0.3333333 1 0.3333333 1 0.1666666 1 0.8333333 1 1 1 1 1 0.5421539 0.37 0.75 0.49 0.9578461 0.37 0.9578461 0.37 0.9578461 0.1299999 0.5421539 0.37 0.9578461 0.1299999 0.75 0.00999999 0.5421539 0.13 0.1666666 0.5 0.1666666 0.5 0.3333333 0.5 0.8333333 0.5 0.8333333 0.5 1 0.5 0.6666666 0.5 0.5 0.5 0.5 0.5 0.1666666 0.5 0 0.5 0 0.5 0.3333333 0.5 0.3333333 0.5 0.5 0.5</float_array>
          <technique_common>
            <accessor source="#Cylinder_003-mesh-map-0-array" count="528" stride="2">
              <param name="S" type="float"/>
              <param name="T" type="float"/>
            </accessor>
          </technique_common>
        </source>
        <vertices id="Cylinder_003-mesh-vertices">
          <input semantic="POSITION" source="#Cylinder_003-mesh-positions"/>
        </vertices>
        <triangles material="Material_001-material" count="144">
          <input semantic="VERTEX" source="#Cylinder_003-mesh-vertices" offset="0"/>
          <input semantic="NORMAL" source="#Cylinder_003-mesh-normals" offset="1"/>
          <input semantic="TEXCOORD" source="#Cylinder_003-mesh-map-0" offset="2" set="0"/>
          <p>1 0 0 2 0 1 0 0 2 3 1 3 4 1 4 2 1 5 5 2 6 6 2 7 4 2 8 7 3 9 8 3 10 6 3 11 7 4 12 14 4 13 15 4 14 9 5 15 10 5 16 8 5 17 11 6 18 0 6 19 10 6 20 4 7 21 19 7 22 2 7 23 11 9 27 13 9 28 1 9 29 7 10 30 16 10 31 9 10 32 5 11 33 12 11 34 14 11 35 9 12 36 17 12 37 11 12 38 1 13 39 12 13 40 3 13 41 10 15 45 22 15 46 8 15 47 2 16 48 18 16 49 0 16 50 6 15 51 20 15 52 4 15 53 10 15 54 18 15 55 23 15 56 8 17 57 21 17 58 6 17 59 25 18 60 26 18 61 24 18 62 27 19 63 28 19 64 26 19 65 29 20 66 30 20 67 28 20 68 31 21 69 32 21 70 30 21 71 29 22 72 39 22 73 31 22 74 33 23 75 34 23 76 32 23 77 35 24 78 24 24 79 34 24 80 28 5 81 43 5 82 26 5 83 35 26 87 37 26 88 25 26 89 33 1 90 39 1 91 40 1 92 27 1 93 38 1 94 29 1 95 33 1 96 41 1 97 35 1 98 27 1 99 37 1 100 36 1 101 34 5 105 46 5 106 32 5 107 26 27 108 42 27 109 24 27 110 28 5 111 45 5 112 44 5 113 34 5 114 42 5 115 47 5 116 32 28 117 45 28 118 30 28 119 49 29 120 50 29 121 48 29 122 51 30 123 52 30 124 50 30 125 52 31 126 55 31 127 54 31 128 54 32 129 57 32 130 56 32 131 53 33 132 63 33 133 55 33 134 57 34 135 58 34 136 56 34 137 59 35 138 48 35 139 58 35 140 52 36 141 67 36 142 50 36 143 59 38 147 61 38 148 49 38 149 57 39 150 63 39 151 64 39 152 53 40 153 60 40 154 62 40 155 57 41 156 65 41 157 59 41 158 51 42 159 61 42 160 60 42 161 58 44 165 70 44 166 56 44 167 50 45 168 66 45 169 48 45 170 52 46 171 69 46 172 68 46 173 58 47 174 66 47 175 71 47 176 56 48 177 69 48 178 54 48 179 72 49 180 75 49 181 74 49 182 75 50 183 76 50 184 74 50 185 77 51 186 78 51 187 76 51 188 79 52 189 80 52 190 78 52 191 77 53 192 87 53 193 79 53 194 81 54 195 82 54 196 80 54 197 82 55 198 73 55 199 72 55 200 76 56 201 91 56 202 74 56 203 83 58 207 85 58 208 73 58 209 81 59 210 87 59 211 88 59 212 75 60 213 86 60 214 77 60 215 81 61 216 89 61 217 83 61 218 75 62 219 85 62 220 84 62 221 82 64 225 94 64 226 80 64 227 74 65 228 90 65 229 72 65 230 76 66 231 93 66 232 92 66 233 82 67 234 90 67 235 95 67 236 80 64 237 93 64 238 78 64 239 1 0 240 3 0 241 2 0 242 3 68 243 5 68 244 4 68 245 5 69 246 7 69 247 6 69 248 7 70 249 9 70 250 8 70 251 7 71 252 5 71 253 14 71 254 9 5 255 11 5 256 10 5 257 11 6 258 1 6 259 0 6 260 4 15 261 20 15 262 19 15 263 11 8 273 17 8 274 13 8 275 7 4 276 15 4 277 16 4 278 5 13 279 3 13 280 12 13 281 9 73 282 16 73 283 17 73 284 1 4 285 13 4 286 12 4 287 10 15 297 23 15 298 22 15 299 2 15 300 19 15 301 18 15 302 6 15 303 21 15 304 20 15 305 10 75 306 0 75 307 18 75 308 8 15 309 22 15 310 21 15 311 25 76 312 27 76 313 26 76 314 27 77 315 29 77 316 28 77 317 29 78 318 31 78 319 30 78 320 31 79 321 33 79 322 32 79 323 29 1 324 38 1 325 39 1 326 33 80 327 35 80 328 34 80 329 35 81 330 25 81 331 24 81 332 28 5 333 44 5 334 43 5 335 35 83 345 41 83 346 37 83 347 33 84 348 31 84 349 39 84 350 27 1 351 36 1 352 38 1 353 33 1 354 40 1 355 41 1 356 27 85 357 25 85 358 37 85 359 34 5 369 47 5 370 46 5 371 26 5 372 43 5 373 42 5 374 28 88 375 30 88 376 45 88 377 34 89 378 24 89 379 42 89 380 32 5 381 46 5 382 45 5 383 49 90 384 51 90 385 50 90 386 51 30 387 53 30 388 52 30 389 52 91 390 53 91 391 55 91 392 54 92 393 55 92 394 57 92 395 53 93 396 62 93 397 63 93 398 57 34 399 59 34 400 58 34 401 59 94 402 49 94 403 48 94 404 52 95 405 68 95 406 67 95 407 59 33 417 65 33 418 61 33 419 57 99 420 55 99 421 63 99 422 53 100 423 51 100 424 60 100 425 57 101 426 64 101 427 65 101 428 51 102 429 49 102 430 61 102 431 58 106 441 71 106 442 70 106 443 50 107 444 67 107 445 66 107 446 52 45 447 54 45 448 69 45 449 58 108 450 48 108 451 66 108 452 56 109 453 70 109 454 69 109 455 72 110 456 73 110 457 75 110 458 75 50 459 77 50 460 76 50 461 77 111 462 79 111 463 78 111 464 79 112 465 81 112 466 80 112 467 77 113 468 86 113 469 87 113 470 81 54 471 83 54 472 82 54 473 82 114 474 83 114 475 73 114 476 76 115 477 92 115 478 91 115 479 83 119 489 89 119 490 85 119 491 81 120 492 79 120 493 87 120 494 75 121 495 84 121 496 86 121 497 81 122 498 88 122 499 89 122 500 75 62 501 73 62 502 85 62 503 82 126 513 95 126 514 94 126 515 74 127 516 91 127 517 90 127 518 76 128 519 78 128 520 93 128 521 82 129 522 72 129 523 90 129 524 80 130 525 94 130 526 93 130 527</p>
        </triangles>
        <triangles material="Material_002-material" count="32">
          <input semantic="VERTEX" source="#Cylinder_003-mesh-vertices" offset="0"/>
          <input semantic="NORMAL" source="#Cylinder_003-mesh-normals" offset="1"/>
          <input semantic="TEXCOORD" source="#Cylinder_003-mesh-map-0" offset="2" set="0"/>
          <p>16 8 24 15 8 25 14 8 26 19 14 42 21 14 43 23 14 44 40 25 84 39 25 85 38 25 86 46 5 102 47 5 103 43 5 104 64 37 144 63 37 145 62 37 146 70 43 162 71 43 163 67 43 164 88 57 204 87 57 205 86 57 206 95 63 222 92 63 223 94 63 224 14 8 264 12 8 265 16 8 266 12 8 267 13 8 268 16 8 269 13 72 270 17 72 271 16 72 272 23 15 288 18 15 289 19 15 290 19 74 291 20 74 292 21 74 293 21 15 294 22 15 295 23 15 296 38 1 336 36 1 337 40 1 338 36 82 339 37 82 340 41 82 341 40 1 342 36 1 343 41 1 344 47 86 360 42 86 361 43 86 362 43 5 363 44 5 364 46 5 365 44 87 366 45 87 367 46 87 368 62 96 408 60 96 409 64 96 410 60 97 411 61 97 412 65 97 413 64 98 414 60 98 415 65 98 416 71 103 432 66 103 433 67 103 434 67 104 435 68 104 436 70 104 437 68 105 438 69 105 439 70 105 440 86 116 480 84 116 481 88 116 482 84 117 483 85 117 484 89 117 485 88 118 486 84 118 487 89 118 488 95 123 504 90 123 505 91 123 506 91 124 507 92 124 508 95 124 509 92 125 510 93 125 511 94 125 512</p>
        </triangles>
      </mesh>
    </geometry>
  </library_geometries>
  <library_visual_scenes>
    <visual_scene id="Scene" name="Scene">
      <node id="Cylinder_001" name="Cylinder.001" type="NODE">
        <matrix sid="transform">-1.82414e-8 -1.82414e-8 -2.204982 0 -0.4173155 7.97359e-16 9.63828e-8 0 0 0.4173155 -9.63828e-8 0 0 0 0 1</matrix>
        <instance_geometry url="#Cylinder_003-mesh" name="Cylinder.001">
          <bind_material>
            <technique_common>
              <instance_material symbol="Material_001-material" target="#Material_001-material">
                <bind_vertex_input semantic="UVMap" input_semantic="TEXCOORD" input_set="0"/>
              </instance_material>
              <instance_material symbol="Material_002-material" target="#Material_002-material">
                <bind_vertex_input semantic="UVMap" input_semantic="TEXCOORD" input_set="0"/>
              </instance_material>
            </technique_common>
          </bind_material>
        </instance_geometry>
      </node>
    </visual_scene>
  </library_visual_scenes>
  <scene>
    <instance_visual_scene url="#Scene"/>
  </scene>
</COLLADA>