<?xml version="1.0" encoding="UTF-8" standalone="no" ?>
<COLLADA xmlns="http://www.collada.org/2005/11/COLLADASchema" version="1.4.1">
    <asset>
        <contributor>
            <authoring_tool>SketchUp 17.2.2555</authoring_tool>
        </contributor>
        <created>2020-01-29T10:37:56Z</created>
        <modified>2020-01-29T10:37:56Z</modified>
        <unit meter="0.0254" name="inch" />
        <up_axis>Z_UP</up_axis>
    </asset>
    <library_cameras>
        <camera id="ID1" name="skp_camera_Last_Saved_SketchUp_View">
            <optics>
                <technique_common>
                    <perspective>
                        <yfov>35</yfov>
                        <aspect_ratio>0</aspect_ratio>
                        <znear>1</znear>
                        <zfar>1000</zfar>
                    </perspective>
                </technique_common>
            </optics>
        </camera>
    </library_cameras>
    <library_visual_scenes>
        <visual_scene id="ID2">
            <node name="SketchUp">
                <instance_geometry url="#ID3">
                    <bind_material>
                        <technique_common>
                            <instance_material symbol="Material2" target="#ID5">
                                <bind_vertex_input semantic="UVSET0" input_semantic="TEXCOORD" input_set="0" />
                            </instance_material>
                        </technique_common>
                    </bind_material>
                </instance_geometry>
                <instance_geometry url="#ID11">
                    <bind_material>
                        <technique_common>
                            <instance_material symbol="Material2" target="#ID5">
                                <bind_vertex_input semantic="UVSET0" input_semantic="TEXCOORD" input_set="0" />
                            </instance_material>
                            <instance_material symbol="Material3" target="#ID12">
                                <bind_vertex_input semantic="UVSET0" input_semantic="TEXCOORD" input_set="0" />
                            </instance_material>
                        </technique_common>
                    </bind_material>
                </instance_geometry>
                <instance_geometry url="#ID19">
                    <bind_material>
                        <technique_common>
                            <instance_material symbol="Material2" target="#ID20">
                                <bind_vertex_input semantic="UVSET0" input_semantic="TEXCOORD" input_set="0" />
                            </instance_material>
                        </technique_common>
                    </bind_material>
                </instance_geometry>
                <instance_geometry url="#ID27">
                    <bind_material>
                        <technique_common>
                            <instance_material symbol="Material2" target="#ID5">
                                <bind_vertex_input semantic="UVSET0" input_semantic="TEXCOORD" input_set="0" />
                            </instance_material>
                        </technique_common>
                    </bind_material>
                </instance_geometry>
                <instance_geometry url="#ID33">
                    <bind_material>
                        <technique_common>
                            <instance_material symbol="Material2" target="#ID34">
                                <bind_vertex_input semantic="UVSET0" input_semantic="TEXCOORD" input_set="0" />
                            </instance_material>
                        </technique_common>
                    </bind_material>
                </instance_geometry>
                <node name="skp_camera_Last_Saved_SketchUp_View">
                    <matrix>-0.9990041 0.01225005 -0.04290444 18.44962 -0.04461899 -0.2742744 0.9606158 173.5912 0 0.9615734 0.2745479 67.95212 0 0 0 1</matrix>
                    <instance_camera url="#ID1" />
                </node>
            </node>
        </visual_scene>
    </library_visual_scenes>
    <library_geometries>
        <geometry id="ID3">
            <mesh>
                <source id="ID6">
                    <float_array id="ID9" count="63">0.1066936 18.87956 24.50908 -7.105427e-15 18.87956 24.50908 -7.189085e-15 18.91373 24.50908 -7.105427e-15 18.87956 24.50908 -7.189085e-15 18.91373 27.3622 -7.105427e-15 18.50394 27.3622 -7.189085e-15 18.91373 24.50908 0.4800715 18.50394 27.3622 -7.189085e-15 18.91373 27.3622 -7.105427e-15 18.50394 27.3622 0.4800715 18.50394 27.3622 59.05512 18.87956 24.50908 -7.105427e-15 18.50394 27.3622 1.27951 18.50394 27.3622 0.4800715 18.50394 27.3622 -7.189085e-15 18.91373 27.3622 0.4800715 18.50394 27.3622 59.05512 18.50394 27.3622 59.05512 18.87956 24.50908 1.27951 18.50394 27.3622 59.05512 -31.49606 27.3622</float_array>
                    <technique_common>
                        <accessor count="21" source="#ID9" stride="3">
                            <param name="X" type="float" />
                            <param name="Y" type="float" />
                            <param name="Z" type="float" />
                        </accessor>
                    </technique_common>
                </source>
                <source id="ID7">
                    <float_array id="ID10" count="63">0 0 -1 0 0 -1 0 0 -1 1 2.196423e-16 1.445823e-17 1 2.196423e-16 1.445823e-17 1 2.196423e-16 1.445823e-17 1 2.196423e-16 1.445823e-17 -0 -0 1 -0 -0 1 -0 -0 1 -0 0.9914449 0.1305262 -0 0.9914449 0.1305262 -0 0.9914449 0.1305262 0 0 -1 0 0 -1 0 0 -1 -3.068031e-17 0.9914449 0.1305262 -3.068031e-17 0.9914449 0.1305262 -3.068031e-17 0.9914449 0.1305262 -3.068031e-17 0.9914449 0.1305262 0 0 -1</float_array>
                    <technique_common>
                        <accessor count="21" source="#ID10" stride="3">
                            <param name="X" type="float" />
                            <param name="Y" type="float" />
                            <param name="Z" type="float" />
                        </accessor>
                    </technique_common>
                </source>
                <vertices id="ID8">
                    <input semantic="POSITION" source="#ID6" />
                    <input semantic="NORMAL" source="#ID7" />
                </vertices>
                <triangles count="9" material="Material2">
                    <input offset="0" semantic="VERTEX" source="#ID8" />
                    <p>0 1 2 3 4 5 4 3 6 7 8 9 10 11 12 13 14 15 16 17 18 17 16 19 20 14 13</p>
                </triangles>
            </mesh>
        </geometry>
        <geometry id="ID11">
            <mesh>
                <source id="ID14">
                    <float_array id="ID17" count="474">1.065814e-14 18.87956 30.21533 -31.49606 29.52756 27.3622 -7.105427e-15 18.50394 27.3622 -31.49606 29.52756 27.3622 -7.105427e-15 18.87956 24.50908 -7.105427e-15 18.50394 27.3622 1.065814e-14 18.87956 30.21533 0.4800715 18.50394 27.3622 -7.105427e-15 18.50394 27.3622 1.27951 18.50394 27.3622 59.05512 18.50394 27.3622 59.05512 18.87956 30.21533 59.05512 18.87956 30.21533 1.065814e-14 18.87956 30.21533 59.05512 18.50394 27.3622 1.27951 18.50394 27.3622 0.4800715 18.50394 27.3622 -7.105427e-15 18.50394 27.3622 1.065814e-14 19.98082 32.87402 -7.105427e-15 19.98082 21.85039 -7.105427e-15 18.50394 27.3622 0.1066936 18.87956 24.50908 -7.105427e-15 18.87956 24.50908 59.05512 18.87956 24.50908 59.05512 18.87956 24.50908 -7.105427e-15 18.50394 27.3622 0.1066936 18.87956 24.50908 -7.105427e-15 18.87956 24.50908 1.065814e-14 19.98082 32.87402 59.05512 19.98082 32.87402 59.05512 19.98082 32.87402 1.065814e-14 19.98082 32.87402 1.065814e-14 21.73268 35.15708 -7.105427e-15 21.73268 19.56733 -7.105427e-15 18.87956 24.50908 59.05512 19.98082 21.85039 -7.105427e-15 19.98082 21.85039 59.05512 18.87956 24.50908 0.1066936 18.87956 24.50908 0.1066936 18.87956 24.50908 -7.105427e-15 18.87956 24.50908 59.05512 18.87956 24.50908 59.05512 19.98082 21.85039 -7.105427e-15 19.98082 21.85039 1.065814e-14 21.73268 35.15708 59.05512 21.73268 35.15708 59.05512 21.73268 35.15708 1.065814e-14 21.73268 35.15708 1.065814e-14 24.01575 36.90894 -7.105427e-15 24.01575 17.81547 59.05512 21.73268 19.56733 -7.105427e-15 21.73268 19.56733 59.05512 21.73268 19.56733 -7.105427e-15 21.73268 19.56733 59.05512 24.01575 36.90894 1.065814e-14 24.01575 36.90894 59.05512 24.01575 36.90894 1.065814e-14 24.01575 36.90894 1.065814e-14 26.67444 38.01021 -7.105427e-15 26.67444 16.7142 -7.105427e-15 24.01575 17.81547 59.05512 24.01575 17.81547 59.05512 24.01575 17.81547 -7.105427e-15 24.01575 17.81547 59.05512 26.67444 38.01021 1.065814e-14 26.67444 38.01021 59.05512 26.67444 38.01021 1.065814e-14 26.67444 38.01021 1.065814e-14 29.52756 38.38583 -7.105427e-15 29.52756 16.33858 -7.105427e-15 26.67444 16.7142 59.05512 26.67444 16.7142 59.05512 26.67444 16.7142 -7.105427e-15 26.67444 16.7142 59.05512 29.52756 38.38583 1.065814e-14 29.52756 38.38583 59.05512 29.52756 38.38583 1.065814e-14 29.52756 38.38583 1.065814e-14 32.38068 38.01021 -7.105427e-15 32.38068 16.7142 -7.105427e-15 29.52756 16.33858 59.05512 29.52756 16.33858 59.05512 29.52756 16.33858 -7.105427e-15 29.52756 16.33858 59.05512 32.38068 38.01021 1.065814e-14 32.38068 38.01021 59.05512 32.38068 38.01021 1.065814e-14 32.38068 38.01021 1.065814e-14 35.03937 36.90894 -7.105427e-15 35.03937 17.81547 -7.105427e-15 32.38068 16.7142 59.05512 32.38068 16.7142 59.05512 32.38068 16.7142 -7.105427e-15 32.38068 16.7142 59.05512 35.03937 36.90894 1.065814e-14 35.03937 36.90894 59.05512 35.03937 36.90894 1.065814e-14 35.03937 36.90894 1.065814e-14 37.32244 35.15708 -7.105427e-15 37.32244 19.56733 -7.105427e-15 35.03937 17.81547 59.05512 35.03937 17.81547 59.05512 35.03937 17.81547 -7.105427e-15 35.03937 17.81547 59.05512 37.32244 35.15708 1.065814e-14 37.32244 35.15708 59.05512 37.32244 35.15708 1.065814e-14 37.32244 35.15708 1.065814e-14 39.0743 32.87402 -7.105427e-15 39.0743 21.85039 -7.105427e-15 37.32244 19.56733 59.05512 37.32244 19.56733 59.05512 37.32244 19.56733 -7.105427e-15 37.32244 19.56733 1.065814e-14 39.0743 32.87402 59.05512 39.0743 32.87402 1.065814e-14 39.0743 32.87402 59.05512 39.0743 32.87402 1.065814e-14 40.17556 30.21533 -7.105427e-15 40.17556 24.50908 59.05512 39.0743 21.85039 -7.105427e-15 39.0743 21.85039 -7.105427e-15 39.0743 21.85039 59.05512 39.0743 21.85039 1.065814e-14 40.17556 30.21533 59.05512 40.17556 30.21533 1.065814e-14 40.17556 30.21533 59.05512 40.17556 30.21533 -7.105427e-15 40.55118 27.3622 -7.105427e-15 40.55118 27.3622 59.05512 40.17556 24.50908 -7.105427e-15 40.17556 24.50908 0.03649636 40.17556 24.50908 0.03649636 40.17556 24.50908 59.05512 40.17556 24.50908 -7.105427e-15 40.17556 24.50908 1.210709 40.55118 27.3622 59.05512 40.55118 27.3622 0.4539198 40.55118 27.3622 -7.105427e-15 40.55118 27.3622 -7.105427e-15 40.55118 27.3622 0.4539198 40.55118 27.3622 1.210709 40.55118 27.3622 59.05512 40.55118 27.3622 59.05512 40.55118 27.3622 0.03649636 40.17556 24.50908 59.05512 40.17556 24.50908 -7.105427e-15 40.17556 24.50908 -7.105427e-15 40.55118 27.3622 1.210709 40.55118 27.3622 0.4539198 40.55118 27.3622 0.4539198 40.55118 27.3622 1.210709 40.55118 27.3622 -7.105427e-15 40.55118 27.3622 59.05512 40.55118 27.3622 -7.105427e-15 40.17556 24.50908 0.03649636 40.17556 24.50908 59.05512 40.17556 24.50908</float_array>
                    <technique_common>
                        <accessor count="158" source="#ID17" stride="3">
                            <param name="X" type="float" />
                            <param name="Y" type="float" />
                            <param name="Z" type="float" />
                        </accessor>
                    </technique_common>
                </source>
                <source id="ID15">
                    <float_array id="ID18" count="474">-0.3303504 -0.9116972 0.2442885 -0.4775416 -2.226232e-15 0.8786091 -0.3278291 -0.9366547 0.1233129 -0.4775416 -2.343402e-15 -0.8786091 -0.3303504 -0.9116972 -0.2442885 -0.3278291 -0.9366547 -0.1233129 -6.07774e-18 0.9659258 -0.258819 -1.205149e-17 0.9914449 -0.1305262 -1.205149e-17 0.9914449 -0.1305262 -1.205149e-17 0.9914449 -0.1305262 -1.205149e-17 0.9914449 -0.1305262 -6.07774e-18 0.9659258 -0.258819 6.07774e-18 -0.9659258 0.258819 6.07774e-18 -0.9659258 0.258819 1.205149e-17 -0.9914449 0.1305262 1.205149e-17 -0.9914449 0.1305262 1.205149e-17 -0.9914449 0.1305262 1.205149e-17 -0.9914449 0.1305262 -0.3303504 -0.8174053 0.4719292 -0.3303504 -0.8174053 -0.4719292 9.943665e-19 0.9914449 0.1305262 9.943665e-19 0.9914449 0.1305262 9.943665e-19 0.9914449 0.1305262 9.943665e-19 0.9914449 0.1305262 -9.943665e-19 -0.9914449 -0.1305262 -9.943665e-19 -0.9914449 -0.1305262 -9.943665e-19 -0.9914449 -0.1305262 -9.943665e-19 -0.9914449 -0.1305262 0 0.8660254 -0.5 0 0.8660254 -0.5 -0 -0.8660254 0.5 -0 -0.8660254 0.5 -0.3303504 -0.6674086 0.6674086 -0.3303504 -0.6674086 -0.6674086 7.616151e-19 0.9238795 0.3826834 3.840935e-19 0.8660254 0.5 3.840935e-19 0.8660254 0.5 7.616151e-19 0.9238795 0.3826834 7.616151e-19 0.9238795 0.3826834 -7.616151e-19 -0.9238795 -0.3826834 -7.616151e-19 -0.9238795 -0.3826834 -7.616151e-19 -0.9238795 -0.3826834 -3.840935e-19 -0.8660254 -0.5 -3.840935e-19 -0.8660254 -0.5 0 0.7071068 -0.7071068 0 0.7071068 -0.7071068 -0 -0.7071068 0.7071068 -0 -0.7071068 0.7071068 -0.3303504 -0.4719292 0.8174053 -0.3303504 -0.4719292 -0.8174053 0 0.7071068 0.7071068 0 0.7071068 0.7071068 -0 -0.7071068 -0.7071068 -0 -0.7071068 -0.7071068 0 0.5 -0.8660254 0 0.5 -0.8660254 -0 -0.5 0.8660254 -0 -0.5 0.8660254 -0.3303504 -0.2442885 0.9116972 -0.3303504 -0.2442885 -0.9116972 0 0.5 0.8660254 0 0.5 0.8660254 -0 -0.5 -0.8660254 -0 -0.5 -0.8660254 0 0.258819 -0.9659258 0 0.258819 -0.9659258 -0 -0.258819 0.9659258 -0 -0.258819 0.9659258 -0.3303504 -1.052732e-15 0.9438584 -0.3303504 -1.830838e-17 -0.9438584 0 0.258819 0.9659258 0 0.258819 0.9659258 -0 -0.258819 -0.9659258 -0 -0.258819 -0.9659258 0 1.131711e-15 -1 0 1.131711e-15 -1 -0 -1.131711e-15 1 -0 -1.131711e-15 1 -0.3303504 0.2442885 0.9116972 -0.3303504 0.2442885 -0.9116972 0 1.693111e-16 1 0 1.693111e-16 1 -0 -1.693111e-16 -1 -0 -1.693111e-16 -1 0 -0.258819 -0.9659258 0 -0.258819 -0.9659258 -0 0.258819 0.9659258 -0 0.258819 0.9659258 -0.3303504 0.4719292 0.8174053 -0.3303504 0.4719292 -0.8174053 0 -0.258819 0.9659258 0 -0.258819 0.9659258 -0 0.258819 -0.9659258 -0 0.258819 -0.9659258 0 -0.5 -0.8660254 0 -0.5 -0.8660254 -0 0.5 0.8660254 -0 0.5 0.8660254 -0.3303504 0.6674086 0.6674086 -0.3303504 0.6674086 -0.6674086 0 -0.5 0.8660254 0 -0.5 0.8660254 -0 0.5 -0.8660254 -0 0.5 -0.8660254 0 -0.7071068 -0.7071068 0 -0.7071068 -0.7071068 -0 0.7071068 0.7071068 -0 0.7071068 0.7071068 -0.3303504 0.8174053 0.4719292 -0.3303504 0.8174053 -0.4719292 0 -0.7071068 0.7071068 0 -0.7071068 0.7071068 -0 0.7071068 -0.7071068 -0 0.7071068 -0.7071068 0 -0.8660254 -0.5 0 -0.8660254 -0.5 -0 0.8660254 0.5 -0 0.8660254 0.5 -0.3303504 0.9116972 0.2442885 -0.3303504 0.9116972 -0.2442885 -1.919166e-19 -0.8660254 0.5 -1.919166e-19 -0.8660254 0.5 1.919166e-19 0.8660254 -0.5 1.919166e-19 0.8660254 -0.5 0 -0.9659258 -0.258819 0 -0.9659258 -0.258819 -0 0.9659258 0.258819 -0 0.9659258 0.258819 -0.3278291 0.9366547 0.1233129 -0.3278291 0.9366547 -0.1233129 -3.805494e-19 -0.9238795 0.3826834 -3.805494e-19 -0.9238795 0.3826834 -3.805494e-19 -0.9238795 0.3826834 3.805494e-19 0.9238795 -0.3826834 3.805494e-19 0.9238795 -0.3826834 3.805494e-19 0.9238795 -0.3826834 0 -0.9914449 -0.1305262 0 -0.9914449 -0.1305262 0 -0.9914449 -0.1305262 0 -0.9914449 -0.1305262 -0 0.9914449 0.1305262 -0 0.9914449 0.1305262 -0 0.9914449 0.1305262 -0 0.9914449 0.1305262 1.03213e-19 -0.9914449 0.1305262 1.03213e-19 -0.9914449 0.1305262 1.03213e-19 -0.9914449 0.1305262 1.03213e-19 -0.9914449 0.1305262 1.03213e-19 -0.9914449 0.1305262 1.03213e-19 -0.9914449 0.1305262 1.03213e-19 -0.9914449 0.1305262 -1.03213e-19 0.9914449 -0.1305262 -1.03213e-19 0.9914449 -0.1305262 -1.03213e-19 0.9914449 -0.1305262 -1.03213e-19 0.9914449 -0.1305262 -1.03213e-19 0.9914449 -0.1305262 -1.03213e-19 0.9914449 -0.1305262 -1.03213e-19 0.9914449 -0.1305262</float_array>
                    <technique_common>
                        <accessor count="158" source="#ID18" stride="3">
                            <param name="X" type="float" />
                            <param name="Y" type="float" />
                            <param name="Z" type="float" />
                        </accessor>
                    </technique_common>
                </source>
                <vertices id="ID16">
                    <input semantic="POSITION" source="#ID14" />
                    <input semantic="NORMAL" source="#ID15" />
                </vertices>
                <triangles count="81" material="Material3">
                    <input offset="0" semantic="VERTEX" source="#ID16" />
                    <p>0 1 2 3 4 5 12 13 14 14 13 15 15 13 16 17 16 13 18 1 0 3 19 4 24 25 26 27 26 25 30 31 12 13 12 31 32 1 18 3 33 19 39 40 41 41 40 42 43 42 40 46 47 30 31 30 47 48 1 32 33 3 49 42 43 52 53 52 43 46 56 47 57 47 56 58 1 48 49 3 59 62 52 63 53 63 52 56 66 57 67 57 66 68 1 58 59 3 69 72 62 73 63 73 62 66 76 67 77 67 76 78 1 68 69 3 79 82 72 83 73 83 72 76 86 77 87 77 86 88 1 78 79 3 89 92 82 93 83 93 82 86 96 87 97 87 96 98 1 88 89 3 99 102 92 103 93 103 92 96 106 97 107 97 106 98 108 1 3 109 99 112 102 113 103 113 102 107 106 116 117 116 106 108 118 1 3 119 109 122 123 113 112 113 123 116 117 126 127 126 117 118 128 1 129 119 3 133 134 135 135 134 122 123 122 134 126 127 140 140 127 141 141 127 142 143 142 127 151 152 153 152 154 153 153 154 155 155 154 156 157 156 154</p>
                </triangles>
                <triangles count="57" material="Material2">
                    <input offset="0" semantic="VERTEX" source="#ID16" />
                    <p>6 7 8 7 6 9 9 6 10 10 6 11 20 21 22 21 20 23 28 11 6 11 28 29 34 35 36 35 34 37 37 34 38 44 29 28 29 44 45 36 50 51 50 36 35 54 44 55 44 54 45 50 60 51 60 50 61 64 55 65 55 64 54 61 70 60 70 61 71 74 65 75 65 74 64 71 80 70 80 71 81 84 75 85 75 84 74 81 90 80 90 81 91 94 85 95 85 94 84 91 100 90 100 91 101 104 95 105 95 104 94 101 110 100 110 101 111 104 114 115 114 104 105 120 110 111 110 120 121 115 124 125 124 115 114 130 121 120 121 130 131 131 130 132 125 136 137 136 125 138 138 125 139 139 125 124 144 145 146 145 144 147 147 144 148 148 144 149 148 149 150</p>
                </triangles>
            </mesh>
        </geometry>
        <geometry id="ID19">
            <mesh>
                <source id="ID22">
                    <float_array id="ID25" count="141">59.05512 90.55118 27.3622 1.210709 40.55118 27.3622 59.05512 40.55118 27.3622 59.05512 90.55118 27.3622 59.05512 40.55118 27.3622 59.05512 40.17556 24.50908 80.70866 29.52756 27.3622 59.05512 40.17556 24.50908 59.05512 40.55118 27.3622 0.4539198 40.55118 27.3622 59.05512 40.17556 24.50908 -7.180534e-15 40.16389 27.3622 59.05512 90.55118 27.3622 59.05512 39.0743 21.85039 59.05512 40.17556 30.21533 80.70866 29.52756 27.3622 59.05512 40.55118 27.3622 59.05512 37.32244 19.56733 59.05512 39.0743 32.87402 59.05512 35.03937 17.81547 59.05512 37.32244 35.15708 59.05512 32.38068 16.7142 59.05512 35.03937 36.90894 59.05512 29.52756 16.33858 59.05512 32.38068 38.01021 59.05512 26.67444 16.7142 59.05512 29.52756 38.38583 59.05512 24.01575 17.81547 59.05512 26.67444 38.01021 59.05512 21.73268 19.56733 59.05512 24.01575 36.90894 59.05512 19.98082 21.85039 59.05512 21.73268 35.15708 59.05512 18.87956 24.50908 59.05512 19.98082 32.87402 59.05512 18.50394 27.3622 59.05512 18.87956 30.21533 59.05512 18.50394 27.3622 59.05512 18.87956 24.50908 59.05512 18.50394 27.3622 59.05512 -31.49606 27.3622 59.05512 -31.49606 27.3622 0.4800715 18.50394 27.3622 59.05512 18.87956 24.50908 59.05512 18.50394 27.3622 1.27951 18.50394 27.3622 59.05512 -31.49606 27.3622</float_array>
                    <technique_common>
                        <accessor count="47" source="#ID25" stride="3">
                            <param name="X" type="float" />
                            <param name="Y" type="float" />
                            <param name="Z" type="float" />
                        </accessor>
                    </technique_common>
                </source>
                <source id="ID23">
                    <float_array id="ID26" count="141">-0 -0 1 -0 -0 1 -0 -0 1 1 -0 -0 1 -0 -0 1 -0 -0 0.6201761 -2.699801e-15 -0.7844626 0.453683 0.8607975 -0.23065 0.4505925 0.8850923 -0.1165246 -0.04819071 0.05648067 -0.99724 -0.04819071 0.05648067 -0.99724 -0.04819071 0.05648067 -0.99724 -0.04819071 0.05648067 -0.99724 0.453683 0.7717699 -0.4455816 0.453683 0.8607975 0.23065 0.6201761 1.880459e-15 0.7844626 0.4505925 0.8850923 0.1165246 0.453683 0.6301475 -0.6301475 0.453683 0.7717699 0.4455816 0.453683 0.4455816 -0.7717699 0.453683 0.6301475 0.6301475 0.453683 0.23065 -0.8607975 0.453683 0.4455816 0.7717699 0.453683 -1.386626e-16 -0.8911631 0.453683 0.23065 0.8607975 0.453683 -0.23065 -0.8607975 0.453683 -9.059289e-16 0.8911631 0.453683 -0.4455816 -0.7717699 0.453683 -0.23065 0.8607975 0.453683 -0.6301475 -0.6301475 0.453683 -0.4455816 0.7717699 0.453683 -0.7717699 -0.4455816 0.453683 -0.6301475 0.6301475 0.453683 -0.8607975 -0.23065 0.453683 -0.7717699 0.4455816 0.4505925 -0.8850923 -0.1165246 0.453683 -0.8607975 0.23065 0.4505925 -0.8850923 0.1165246 1 -0 -0 1 -0 -0 1 -0 -0 -0.04821218 -0.05648061 -0.997239 -0.04821218 -0.05648061 -0.997239 -0.04821218 -0.05648061 -0.997239 -0 -0 1 -0 -0 1 -0 -0 1</float_array>
                    <technique_common>
                        <accessor count="47" source="#ID26" stride="3">
                            <param name="X" type="float" />
                            <param name="Y" type="float" />
                            <param name="Z" type="float" />
                        </accessor>
                    </technique_common>
                </source>
                <vertices id="ID24">
                    <input semantic="POSITION" source="#ID22" />
                    <input semantic="NORMAL" source="#ID23" />
                </vertices>
                <triangles count="31" material="Material2">
                    <input offset="0" semantic="VERTEX" source="#ID24" />
                    <p>0 1 2 3 4 5 6 7 8 9 10 11 10 9 12 6 13 7 14 15 16 6 17 13 18 15 14 6 19 17 20 15 18 6 21 19 15 20 22 6 23 21 15 22 24 6 25 23 15 24 26 6 27 25 15 26 28 6 29 27 15 28 30 6 31 29 15 30 32 6 33 31 32 34 15 35 33 6 34 36 15 36 37 15 38 39 40 41 42 43 44 45 46</p>
                </triangles>
            </mesh>
        </geometry>
        <geometry id="ID27">
            <mesh>
                <source id="ID28">
                    <float_array id="ID31" count="54">0.03649636 40.17556 24.50908 -7.180534e-15 40.16389 24.50908 -7.105427e-15 40.17556 24.50908 -7.105427e-15 40.17556 24.50908 -7.180534e-15 40.16389 27.3622 -7.180534e-15 40.16389 24.50908 -7.105427e-15 40.55118 27.3622 -7.180534e-15 40.16389 27.3622 0.03649636 40.17556 24.50908 -7.180534e-15 40.16389 24.50908 0.4539198 40.55118 27.3622 -7.105427e-15 40.55118 27.3622 -7.180534e-15 40.16389 27.3622 -7.180534e-15 40.16389 27.3622 59.05512 40.17556 24.50908 0.03649636 40.17556 24.50908 1.210709 40.55118 27.3622 59.05512 90.55118 27.3622</float_array>
                    <technique_common>
                        <accessor count="18" source="#ID31" stride="3">
                            <param name="X" type="float" />
                            <param name="Y" type="float" />
                            <param name="Z" type="float" />
                        </accessor>
                    </technique_common>
                </source>
                <source id="ID29">
                    <float_array id="ID32" count="54">0 0 -1 0 0 -1 0 0 -1 1 -1.995908e-16 1.313831e-17 1 -1.995908e-16 1.313831e-17 1 -1.995908e-16 1.313831e-17 1 -1.995908e-16 1.313831e-17 -0.304682 0.9524541 -0 -0.304682 0.9524541 -0 -0.304682 0.9524541 -0 -0 -0 1 -0 -0 1 -0 -0 1 -2.349301e-20 0.9999916 0.004091929 -2.349301e-20 0.9999916 0.004091929 -2.349301e-20 0.9999916 0.004091929 -0 -0 1 -0 -0 1</float_array>
                    <technique_common>
                        <accessor count="18" source="#ID32" stride="3">
                            <param name="X" type="float" />
                            <param name="Y" type="float" />
                            <param name="Z" type="float" />
                        </accessor>
                    </technique_common>
                </source>
                <vertices id="ID30">
                    <input semantic="POSITION" source="#ID28" />
                    <input semantic="NORMAL" source="#ID29" />
                </vertices>
                <triangles count="8" material="Material2">
                    <input offset="0" semantic="VERTEX" source="#ID30" />
                    <p>0 1 2 3 4 5 4 3 6 7 8 9 10 11 12 13 14 15 16 10 12 17 10 16</p>
                </triangles>
            </mesh>
        </geometry>
        <geometry id="ID33">
            <mesh>
                <source id="ID36">
                    <float_array id="ID38" count="6">-30.31496 29.52756 27.3622 -31.49606 29.52756 27.3622</float_array>
                    <technique_common>
                        <accessor count="2" source="#ID38" stride="3">
                            <param name="X" type="float" />
                            <param name="Y" type="float" />
                            <param name="Z" type="float" />
                        </accessor>
                    </technique_common>
                </source>
                <vertices id="ID37">
                    <input semantic="POSITION" source="#ID36" />
                </vertices>
                <lines count="1" material="Material2">
                    <input offset="0" semantic="VERTEX" source="#ID37" />
                    <p>1 0</p>
                </lines>
            </mesh>
        </geometry>
    </library_geometries>
    <library_materials>
        <material id="ID5" name="material">
            <instance_effect url="#ID4" />
        </material>
        <material id="ID12" name="Color_M02">
            <instance_effect url="#ID13" />
        </material>
        <material id="ID20" name="Color_M04">
            <instance_effect url="#ID21" />
        </material>
        <material id="ID34" name="edge_color000255">
            <instance_effect url="#ID35" />
        </material>
    </library_materials>
    <library_effects>
        <effect id="ID4">
            <profile_COMMON>
                <technique sid="COMMON">
                    <lambert>
                        <diffuse>
                            <color>1 1 1 1</color>
                        </diffuse>
                    </lambert>
                </technique>
            </profile_COMMON>
        </effect>
        <effect id="ID13">
            <profile_COMMON>
                <technique sid="COMMON">
                    <lambert>
                        <diffuse>
                            <color>0.7764706 0.7764706 0.7764706 1</color>
                        </diffuse>
                    </lambert>
                </technique>
            </profile_COMMON>
        </effect>
        <effect id="ID21">
            <profile_COMMON>
                <technique sid="COMMON">
                    <lambert>
                        <diffuse>
                            <color>0.5568627 0.5568627 0.5568627 1</color>
                        </diffuse>
                    </lambert>
                </technique>
            </profile_COMMON>
        </effect>
        <effect id="ID35">
            <profile_COMMON>
                <technique sid="COMMON">
                    <constant>
                        <transparent opaque="A_ONE">
                            <color>0 0 0 1</color>
                        </transparent>
                        <transparency>
                            <float>1</float>
                        </transparency>
                    </constant>
                </technique>
            </profile_COMMON>
        </effect>
    </library_effects>
    <scene>
        <instance_visual_scene url="#ID2" />
    </scene>
</COLLADA>
